year0,year3,group,numbers
New arrival,Training,Removed,1
New arrival,Racing,Control,16
New arrival,Retired (r>0),Control,3
New arrival,Retired (r=0),Case,10
PP arrival,Training,Removed,0
PP arrival,Racing,Removed,9
PP arrival,Retired (r>0),Removed,2
PP arrival,Retired (r=0),Removed,7
Training,Training,Removed,2
Training,Racing,Control,25
Training,Retired (r>0),Control,6
Training,Retired (r=0),Case,12
Racing,Racing,Removed,64
Racing,Retired (r>0),Removed,20
